20

7
Sherry Pina
Leonard Kendall
Rosalind Roberts
Nancy Tamashiro
Clarence Roberts
Jeffrey Casper
Maria Burling
3 2 6 5 4 1 7
4 1 6 7 5 3 2
1 2 5 3 6 4 7
1 4 3 5 2 7 6
3 4 6 7 2 1 5
3 4 6 1 7 2 5
1 7 5 3 2 6 4
5 4 2 1 6 3 7
2 4 6 5 3 1 7

4
Rebecca Hanson
Marjorie Davison
Christopher Patterson
Arthur Steichen
1 3 4 2
3 1 4 2
3 1 2 4
2 1 4 3
1 4 3 2
1 2 3 4
2 1 3 4
2 3 4 1
1 3 4 2

4
Mazie He
Joyce Jackson
Josephine Lovett
Shelly Alfonso
2 1 3 4
3 4 1 2
4 3 1 2
1 4 3 2
1 4 3 2
1 3 4 2

4
David Caruthers
Sean Walker
Ernest Pritchett
Jose Demarest
1 4 2 3
2 3 1 4
3 2 4 1
3 2 4 1
3 1 2 4
1 3 2 4

4
Eric Arsenault
Carol Foreman
Ramon Johnson
Mark Isabell
2 4 1 3
1 3 2 4
4 2 1 3
1 3 2 4
3 4 2 1
1 4 3 2
2 4 1 3
2 3 1 4
2 3 4 1

5
Patricia Cobb
Ana Hodson
Freddie Roy
Carlton Benthall
Wayne Owsley
2 1 5 4 3
3 1 4 2 5
1 2 3 5 4
2 1 5 4 3
3 4 2 1 5
4 3 5 1 2
5 2 4 3 1
1 5 4 3 2

4
Michelle Daniel
Jeffery Coffman
Roger Moreland
Kasey Lewis
4 1 2 3
2 3 4 1
1 3 2 4
2 1 4 3
1 2 4 3
4 2 1 3
4 3 1 2

4
Dortha French
Yolanda Turner
Clinton Murray
Antonio Rodriguez
4 1 3 2
3 4 1 2
4 2 1 3
1 2 4 3
4 3 2 1
4 3 1 2
3 2 4 1

6
Glynis Epp
Danielle Box
Albert Tsutsumi
Nathan Mcdaniel
Hilda Blume
Pamela Gill
4 3 6 2 1 5
2 4 5 1 3 6
3 2 6 4 5 1
6 2 3 5 1 4
2 4 3 6 5 1
6 1 5 3 2 4
4 2 3 1 5 6

4
Victor Kahan
Rose Gibson
Kimberly Mclain
Joyce Martin
4 1 2 3
3 4 1 2
2 4 1 3
3 4 1 2
2 3 1 4
4 3 1 2
1 2 3 4
3 1 4 2

7
Bertha Cline
Oscar Evans
Elyse March
William Christensen
Nick Jaquess
Nancy Smith
Tony Meek
3 6 5 7 2 4 1
2 7 6 1 3 5 4
2 3 5 1 4 7 6
1 7 3 5 6 4 2
1 3 6 7 5 2 4

5
Thomas Dickson
Christina Riendeau
Terry Olson
Yvette Otero
Dorothy Kluge
2 3 1 4 5
5 3 2 1 4
2 5 3 4 1
1 5 3 4 2
5 4 1 2 3
5 4 3 1 2
2 4 1 5 3

4
Jeremy Brooks
Pearl James
Margaret Beaty
William Macumber
2 3 4 1
3 1 2 4
1 2 4 3
3 2 1 4
2 4 3 1

7
Jason Durham
Geneva Summey
Lena Henderlite
Patricia Henderson
James Reese
Robert Wiley
Brett Stumpf
5 1 4 6 2 3 7
5 6 4 1 2 7 3
6 3 1 5 2 4 7
4 1 2 3 6 5 7
1 6 7 2 5 3 4
6 1 3 4 5 2 7
3 5 7 6 1 4 2

7
Juan Farmer
Gloria Taylor
Richie Reyna
Peter Rudnicki
Daniel Holte
Sharon Morales
Clinton Stanley
2 5 3 1 4 7 6
6 4 7 1 5 3 2
4 6 5 3 7 2 1
5 7 3 4 1 6 2
4 1 7 6 5 3 2

5
Monica Pokswinski
Debra Santos
Elizabeth Damm
James Dixon
Grace Olguin
2 3 5 4 1
1 5 3 4 2
5 3 2 4 1
1 2 5 3 4
4 3 5 2 1
3 5 4 2 1
4 2 1 3 5
4 2 3 1 5

4
Brenda Mcbride
Martha Swain
Kathy Mclendon
Robin Calloway
3 1 2 4
3 4 1 2
2 4 3 1
1 3 2 4
1 3 4 2

6
Frances Bailey
William Resner
Michele Bailey
Russell Ohara
Donna Keyes
John Florence
4 1 3 6 2 5
3 6 2 1 4 5
3 6 5 4 2 1
1 6 2 3 5 4
5 2 1 6 4 3
2 1 3 6 5 4
5 4 1 6 2 3
5 2 3 1 6 4

5
Michelle Howard
Louis Shone
Shelley Johnson
Kathy Sellers
Robert Motl
2 3 1 5 4
4 1 2 5 3
5 4 2 3 1
1 2 5 4 3
1 2 4 5 3
1 3 4 5 2
2 4 1 5 3
2 4 5 3 1
4 5 3 1 2

4
Lois Mackey
Mary Jenkins
Jill Wells
Hans Rafferty
1 2 4 3
4 1 2 3
4 1 3 2
2 1 3 4
2 1 4 3
1 2 4 3
2 3 1 4
4 2 3 1